00000000: aced 0005 7372 002d 636f 6d2e 6372 6564  ....sr.-com.cred
00000010: 6974 732e 6372 6564 6974 732e 6372 6564  its.credits.cred
00000020: 6974 732e 6d6f 6465 6c2e 4372 6564 6974  its.model.Credit
00000030: 436f 756e 7432 09db 1214 0924 4702 0001  Count2.....$G...
00000040: 4a00 0576 616c 7565 7870 0000 0000 0000  J..valuexp......
00000050: 0001                                     ..
